* xrobot_dead; right
Y-Robot 2; .....('n').....
* meccha; left
Meccha; Y-Robot 2...
Meccha; Thank you for everything you've done.
Y-Robot 2; .....(^v^).....
* hide; all
Y-Robot 2 has stopped functioning.